Project 1: Exploratory Data Analysis on March Madness Predictions
…
#Table ofsummary statistics
selected_data%>%group_by(Conf)%>%summarise(mean_wins=mean(wins),sd_wins=sd(wins),var_wins=var(wins),mean_bpi=mean(BPI),sd_bpi=sd(BPI),var_bpi=var(BPI),mean_WAB=mean(WAB),sd_WAB=sd(WAB),var_WAB=var(WAB),max_wins=max(wins),min_wins=min(wins))

## # A tibble: 32 x 12
##    Conf      mean_wins sd_wins var_wins mean_bpi sd_bpi var_bpi mean_WAB sd_WAB
##    <chr>         <dbl>   <dbl>    <dbl>    <dbl>  <dbl>   <dbl>    <dbl>  <dbl>
##  1 A-Sun          26     NA       NA         5.4 NA      NA        -1.7  NA    
##  2 A 10           25      1        1        10.1  0.361   0.130     1.07  0.586
##  3 ACC            24.8    4.18    17.4      14.5  3.78   14.3       5.36  2.49 
##  4 Am. East       29     NA       NA         9   NA      NA         0.7  NA    
##  5 American       30      0        0        15.2  0.495   0.245     6     0.566
##  6 Big 12         25.2    4.26    18.2      14.7  3.09    9.56      6.13  3.31 
##  7 Big East       23.7    4.39    19.2      11.9  4.11   16.9       3.77  3.72 
##  8 Big Sky        22     NA       NA         1.4 NA      NA        -5.3  NA    
##  9 Big South      26     NA       NA         3.7 NA      NA        -1.8  NA    
## 10 Big Ten        24.6    2.44     5.95     12.1  3.30   10.9       3.47  1.78 
## # ... with 22 more rows, and 3 more variables: var_WAB <dbl>, max_wins <dbl>,
## #   min_wins <dbl>
…
